-------------------------------------------------------------------------------
Test set: cda6.JCV.JB_CV_CF_SpringBraderie.AppTest
-------------------------------------------------------------------------------
Tests run: 1, Failures: 0, Errors: 0, Skipped: 0, Time elapsed: 0.023 sec
